Análisis de mensajes Sarcásticos
…
## [1] 0

sum(is.na(sarcasmo$created_utc))

## [1] 0

sum(is.na(sarcasmo$parent_comment))

## [1] 0

# Mostrar existencia de filas con valores NA (notar que no son las que tienen como mentario el string '0', si no las que tienen datos NA)
sarcasmo[sarcasmo$comment == 0,]

## # A tibble: 59 x 10
##    label comment author    subreddit score   ups downs date  created_utc        
##    <dbl> <chr>   <chr>     <chr>     <dbl> <dbl> <dbl> <chr> <dttm>             
##  1     0 0       Anxietyf~ pokemongo     6    -1    -1 2016~ 2016-12-26 00:27:13
##  2    NA <NA>    <NA>      <NA>         NA    NA    NA <NA>  NA                 
##  3    NA <NA>    <NA>      <NA>         NA    NA    NA <NA>  NA                 
##  4    NA <NA>    <NA>      <NA>         NA    NA    NA <NA>  NA                 
##  5    NA <NA>    <NA>      <NA>         NA    NA    NA <NA>  NA                 
##  6    NA <NA>    <NA>      <NA>         NA    NA    NA <NA>  NA                 
##  7    NA <NA>    <NA>      <NA>         NA    NA    NA <NA>  NA                 
##  8     0 0       sleeplyb~ pcmaster~     1     1     0 2016~ 2016-05-22 01:30:49
##  9    NA <NA>    <NA>      <NA>         NA    NA    NA <NA>  NA                 
## 10    NA <NA>    <NA>      <NA>         NA    NA    NA <NA>  NA                 
## # ... with 49 more rows, and 1 more variable: parent_comment <chr>
…
# Resumen de estadísticas del largo de los comentarios sarcasticos
summary(Length_comment)

##     Min.  1st Qu.   Median     Mean  3rd Qu.     Max.     NA's 
##     1.00    27.00    46.00    56.69    74.00 10000.00       53

sarcasmo[str_length(sarcasmo$comment) == 10000,]

## # A tibble: 56 x 10
##    label comment    author subreddit score   ups downs date  created_utc        
##    <dbl> <chr>      <chr>  <chr>     <dbl> <dbl> <dbl> <chr> <dttm>             
##  1     0 DONALD TR~ Sage2~ circleje~     2    -1    -1 2016~ 2016-10-04 04:42:48
##  2    NA <NA>       <NA>   <NA>         NA    NA    NA <NA>  NA                 
##  3    NA <NA>       <NA>   <NA>         NA    NA    NA <NA>  NA                 
##  4    NA <NA>       <NA>   <NA>         NA    NA    NA <NA>  NA                 
##  5    NA <NA>       <NA>   <NA>         NA    NA    NA <NA>  NA                 
##  6    NA <NA>       <NA>   <NA>         NA    NA    NA <NA>  NA                 
##  7    NA <NA>       <NA>   <NA>         NA    NA    NA <NA>  NA                 
##  8    NA <NA>       <NA>   <NA>         NA    NA    NA <NA>  NA                 
##  9    NA <NA>       <NA>   <NA>         NA    NA    NA <NA>  NA                 
## 10    NA <NA>       <NA>   <NA>         NA    NA    NA <NA>  NA                 
## # ... with 46 more rows, and 1 more variable: parent_comment <chr>
…
